Mice data - Bootstrap Distributions
…
Join dataframes

bind_cols(treatment_boot, control_boot)

New names:
• `replicate` -> `replicate...1`
• `replicate` -> `replicate...3`

# A tibble: 1,000 × 4
   replicate...1 x_bars replicate...3 y_bars
           <int>  <dbl>         <int>  <dbl>
 1             1   66.9             1   62.2
 2             2   46.3             2   60.2
 3             3  105               3   54.2
 4             4   76               4   67.4
 5             5  104.              5   50.1
 6             6   71               6   92.3
 7             7   99.4             7   56.8
 8             8   74.7             8   68.7
 9             9   87.6             9   48.4
10            10   74.7            10   73.8
# … with 990 more rows

treatment_boot %>% 
  bind_cols(control_boot) %>% 
  select(-replicate...3) %>% 
  rename(replicate = replicate...1)

New names:
• `replicate` -> `replicate...1`
• `replicate` -> `replicate...3`

# A tibble: 1,000 × 3
   replicate x_bars y_bars
       <int>  <dbl>  <dbl>
 1         1   66.9   62.2
 2         2   46.3   60.2
 3         3  105     54.2
 4         4   76     67.4
 5         5  104.    50.1
 6         6   71     92.3
 7         7   99.4   56.8
 8         8   74.7   68.7
 9         9   87.6   48.4
10        10   74.7   73.8
# … with 990 more rows
…
