An analysis on what drives the popularity of a programming language: Does social media or technical features have a greater impact?
…
null_dist %>% 
  get_p_value(obs_stat = obs_stat,
              direction = 'right')

# A tibble: 1 × 1
  p_value
    <dbl>
1   0.529

df

# A tibble: 586 × 16
   pl    stack…¹ linke…² git_h…³ googl…⁴ proce…⁵ scrip…⁶ funct…⁷ objec…⁸ concu…⁹
   <chr>   <dbl>   <dbl>   <dbl>   <dbl> <fct>   <fct>   <fct>   <fct>   <fct>  
 1 A-0 …       0       0       0  2.74e4 1       0       0       0       0      
 2 A# .…       0       0      16  2.98e4 0       0       0       1       0      
 3 A+          0      56   15471  5.13e6 0       0       0       0       0      
 4 A++         0     311   15471  1.42e5 0       0       1       1       0      
 5 ABAP       88     281      11  0      0       0       0       1       0      
 6 ABC       154      55      13  0      1       0       0       0       0      
 7 AceD…       0       0       0  3   e0 1       0       0       1       0      
 8 Acti…    4241    7749      87  7.38e7 1       0       0       0       0      
 9 Acti…    9122      11      20  6.08e5 0       1       1       1       0      
10 Actor    1798      89      28  1.25e7 0       0       0       1       0      
# … with 576 more rows, 6 more variables: social_media_presence <dbl>,
#   popularity <fct>, log_google_hits <dbl>, log_linked_in <dbl>,
#   log_git_hub_hits <dbl>, log_stackoverflow <dbl>, and abbreviated variable
#   names ¹​stackoverflow, ²​linked_in, ³​git_hub_hits, ⁴​google_hits, ⁵​procedural,
#   ⁶​scripting, ⁷​functional, ⁸​object_oriented, ⁹​concurrent
…
# report the following test resulst

test_results <- 
  df_testing %>% 
  bind_cols(predict(model_4_updated, df_testing)) %>% 
  select(log_google_hits, .pred)

test_results

# A tibble: 120 × 2
   log_google_hits .pred
             <dbl> <dbl>
 1            0     13.9
 2            1.39  11.6
 3           12.7   11.6
 4            8.81  11.6
 5            9.34  12.1
 6            9.13  12.1
 7           14.1   11.6
 8           14.6   15.9
 9           14.4   15.1
10           13.3   14.2
# … with 110 more rows
…
