NBA Salaries for 2019-2020
…
Lets group them by replication, and then find average salary for each replication.

set.seed(2022)
nba %>% 
  rep_sample_n(size = 10, 
               reps = 500,
               replace = FALSE) %>% 
  group_by(replicate) %>% 
  summarise(mean = mean(Salary))

# A tibble: 500 × 2
   replicate  mean
       <int> <dbl>
 1         1  2.91
 2         2  7.41
 3         3  9.32
 4         4  6.61
 5         5  9.12
 6         6 11.2 
 7         7  9.00
 8         8  4.42
 9         9  7.87
10        10  8.24
# … with 490 more rows
# ℹ Use `print(n = ...)` to see more rows
…
Lets approximate mean and standard distribution of the sampling distribution.

set.seed(2022)
resampling_data <- 
  nba %>% 
  rep_sample_n(size = 10, 
               reps = 10000,
               replace = FALSE) %>% 
  group_by(replicate) %>% 
  summarise(means = mean(Salary))
resampling_data

# A tibble: 10,000 × 2
   replicate means
       <int> <dbl>
 1         1  2.91
 2         2  7.41
 3         3  9.32
 4         4  6.61
 5         5  9.12
 6         6 11.2 
 7         7  9.00
 8         8  4.42
 9         9  7.87
10        10  8.24
# … with 9,990 more rows
# ℹ Use `print(n = ...)` to see more rows
…
