County data - EDA
…
# reading from CSV
county2 = read_csv('county.csv')

Rows: 3142 Columns: 15
── Column specification ────────────────────────────────────────────────────────
Delimiter: ","
chr  (5): name, state, metro, median_edu, smoking_ban
dbl (10): pop2000, pop2010, pop2017, pop_change, poverty, homeownership, mul...

ℹ Use `spec()` to retrieve the full column specification for this data.
ℹ Specify the column types or set `show_col_types = FALSE` to quiet this message.

as_tibble(county2 == county)

# A tibble: 3,142 × 15
   name  state pop2000 pop2010 pop2017 pop_cha…¹ poverty homeo…² multi…³ unemp…⁴
   <lgl> <lgl> <lgl>   <lgl>   <lgl>   <lgl>     <lgl>   <lgl>   <lgl>   <lgl>  
 1 TRUE  TRUE  TRUE    TRUE    TRUE    TRUE      TRUE    TRUE    TRUE    TRUE   
 2 TRUE  TRUE  TRUE    TRUE    TRUE    TRUE      TRUE    TRUE    TRUE    TRUE   
 3 TRUE  TRUE  TRUE    TRUE    TRUE    TRUE      TRUE    TRUE    TRUE    TRUE   
 4 TRUE  TRUE  TRUE    TRUE    TRUE    TRUE      TRUE    TRUE    TRUE    TRUE   
 5 TRUE  TRUE  TRUE    TRUE    TRUE    TRUE      TRUE    TRUE    TRUE    TRUE   
 6 TRUE  TRUE  TRUE    TRUE    TRUE    TRUE      TRUE    TRUE    TRUE    TRUE   
 7 TRUE  TRUE  TRUE    TRUE    TRUE    TRUE      TRUE    TRUE    TRUE    TRUE   
 8 TRUE  TRUE  TRUE    TRUE    TRUE    TRUE      TRUE    TRUE    TRUE    TRUE   
 9 TRUE  TRUE  TRUE    TRUE    TRUE    TRUE      TRUE    TRUE    TRUE    TRUE   
10 TRUE  TRUE  TRUE    TRUE    TRUE    TRUE      TRUE    TRUE    TRUE    TRUE   
# … with 3,132 more rows, 5 more variables: metro <lgl>, median_edu <lgl>,
#   per_capita_income <lgl>, median_hh_income <lgl>, smoking_ban <lgl>, and
#   abbreviated variable names ¹​pop_change, ²​homeownership, ³​multi_unit,
#   ⁴​unemployment_rate
# ℹ Use `print(n = ...)` to see more rows, and `colnames()` to see all variable names

Change the data format to tibble (advanced data frame) and view portion of it.

county <- as_tibble(county)
county

# A tibble: 3,142 × 15
   name    state pop2000 pop2010 pop2017 pop_c…¹ poverty homeo…² multi…³ unemp…⁴
   <fct>   <fct>   <dbl>   <dbl>   <int>   <dbl>   <dbl>   <dbl>   <dbl>   <dbl>
 1 Autaug… Alab…   43671   54571   55504    1.48    13.7    77.5     7.2    3.86
 2 Baldwi… Alab…  140415  182265  212628    9.19    11.8    76.7    22.6    3.99
 3 Barbou… Alab…   29038   27457   25270   -6.22    27.2    68      11.1    5.9 
 4 Bibb C… Alab…   20826   22915   22668    0.73    15.2    82.9     6.6    4.39
 5 Blount… Alab…   51024   57322   58013    0.68    15.6    82       3.7    4.02
 6 Bulloc… Alab…   11714   10914   10309   -2.28    28.5    76.9     9.9    4.93
 7 Butler… Alab…   21399   20947   19825   -2.69    24.4    69      13.7    5.49
 8 Calhou… Alab…  112249  118572  114728   -1.51    18.6    70.7    14.3    4.93
 9 Chambe… Alab…   36583   34215   33713   -1.2     18.8    71.4     8.7    4.08
10 Cherok… Alab…   23988   25989   25857   -0.6     16.1    77.5     4.3    4.05
# … with 3,132 more rows, 5 more variables: metro <fct>, median_edu <fct>,
#   per_capita_income <dbl>, median_hh_income <int>, smoking_ban <fct>, and
#   abbreviated variable names ¹​pop_change, ²​homeownership, ³​multi_unit,
#   ⁴​unemployment_rate
# ℹ Use `print(n = ...)` to see more rows, and `colnames()` to see all variable names
…
