bike_share_model_selection
…
Data is from Fanaee and Gama (Fanaee-T and Gama 2013)

remote <-  'https://raw.githubusercontent.com/'
account <-  'turalsadigov/MATH_254/main/'
folder <-  'data/Bike-Sharing-Dataset/'
file <-  'hour.csv'
url <- str_c(remote, account, folder, file)
url

[1] "https://raw.githubusercontent.com/turalsadigov/MATH_254/main/data/Bike-Sharing-Dataset/hour.csv"

bike <- read_csv(url)
bike

# A tibble: 17,379 × 17
   instant dteday     season    yr  mnth    hr holiday weekday working…¹ weath…²
     <dbl> <date>      <dbl> <dbl> <dbl> <dbl>   <dbl>   <dbl>     <dbl>   <dbl>
 1       1 2011-01-01      1     0     1     0       0       6         0       1
 2       2 2011-01-01      1     0     1     1       0       6         0       1
 3       3 2011-01-01      1     0     1     2       0       6         0       1
 4       4 2011-01-01      1     0     1     3       0       6         0       1
 5       5 2011-01-01      1     0     1     4       0       6         0       1
 6       6 2011-01-01      1     0     1     5       0       6         0       2
 7       7 2011-01-01      1     0     1     6       0       6         0       1
 8       8 2011-01-01      1     0     1     7       0       6         0       1
 9       9 2011-01-01      1     0     1     8       0       6         0       1
10      10 2011-01-01      1     0     1     9       0       6         0       1
# … with 17,369 more rows, 7 more variables: temp <dbl>, atemp <dbl>,
#   hum <dbl>, windspeed <dbl>, casual <dbl>, registered <dbl>, cnt <dbl>, and
#   abbreviated variable names ¹​workingday, ²​weathersit
…
