Sampling methods in tidyverse
…
load("county.rda")

Data

county %>% 
  as_tibble()

# A tibble: 3,142 × 15
   name    state pop2000 pop2010 pop2017 pop_c…¹ poverty homeo…² multi…³ unemp…⁴
   <fct>   <fct>   <dbl>   <dbl>   <int>   <dbl>   <dbl>   <dbl>   <dbl>   <dbl>
 1 Autaug… Alab…   43671   54571   55504    1.48    13.7    77.5     7.2    3.86
 2 Baldwi… Alab…  140415  182265  212628    9.19    11.8    76.7    22.6    3.99
 3 Barbou… Alab…   29038   27457   25270   -6.22    27.2    68      11.1    5.9 
 4 Bibb C… Alab…   20826   22915   22668    0.73    15.2    82.9     6.6    4.39
 5 Blount… Alab…   51024   57322   58013    0.68    15.6    82       3.7    4.02
 6 Bulloc… Alab…   11714   10914   10309   -2.28    28.5    76.9     9.9    4.93
 7 Butler… Alab…   21399   20947   19825   -2.69    24.4    69      13.7    5.49
 8 Calhou… Alab…  112249  118572  114728   -1.51    18.6    70.7    14.3    4.93
 9 Chambe… Alab…   36583   34215   33713   -1.2     18.8    71.4     8.7    4.08
10 Cherok… Alab…   23988   25989   25857   -0.6     16.1    77.5     4.3    4.05
# … with 3,132 more rows, 5 more variables: metro <fct>, median_edu <fct>,
#   per_capita_income <dbl>, median_hh_income <int>, smoking_ban <fct>, and
#   abbreviated variable names ¹​pop_change, ²​homeownership, ³​multi_unit,
#   ⁴​unemployment_rate
# ℹ Use `print(n = ...)` to see more rows, and `colnames()` to see all variable names
…
Group by

county %>%
  group_by(metro) 

# A tibble: 3,142 × 15
# Groups:   metro [3]
   name    state pop2000 pop2010 pop2017 pop_c…¹ poverty homeo…² multi…³ unemp…⁴
   <fct>   <fct>   <dbl>   <dbl>   <int>   <dbl>   <dbl>   <dbl>   <dbl>   <dbl>
 1 Autaug… Alab…   43671   54571   55504    1.48    13.7    77.5     7.2    3.86
 2 Baldwi… Alab…  140415  182265  212628    9.19    11.8    76.7    22.6    3.99
 3 Barbou… Alab…   29038   27457   25270   -6.22    27.2    68      11.1    5.9 
 4 Bibb C… Alab…   20826   22915   22668    0.73    15.2    82.9     6.6    4.39
 5 Blount… Alab…   51024   57322   58013    0.68    15.6    82       3.7    4.02
 6 Bulloc… Alab…   11714   10914   10309   -2.28    28.5    76.9     9.9    4.93
 7 Butler… Alab…   21399   20947   19825   -2.69    24.4    69      13.7    5.49
 8 Calhou… Alab…  112249  118572  114728   -1.51    18.6    70.7    14.3    4.93
 9 Chambe… Alab…   36583   34215   33713   -1.2     18.8    71.4     8.7    4.08
10 Cherok… Alab…   23988   25989   25857   -0.6     16.1    77.5     4.3    4.05
# … with 3,132 more rows, 5 more variables: metro <fct>, median_edu <fct>,
#   per_capita_income <dbl>, median_hh_income <int>, smoking_ban <fct>, and
#   abbreviated variable names ¹​pop_change, ²​homeownership, ³​multi_unit,
#   ⁴​unemployment_rate
# ℹ Use `print(n = ...)` to see more rows, and `colnames()` to see all variable names
…
Systematic sampling

sample_size = 20
population_size = nrow(county)
interval = as.integer(population_size/sample_size)
rows = seq(1, population_size, interval)
county %>% 
  slice(rows)

# A tibble: 21 × 15
   name    state pop2000 pop2010 pop2017 pop_c…¹ poverty homeo…² multi…³ unemp…⁴
   <fct>   <fct>   <dbl>   <dbl>   <int>   <dbl>   <dbl>   <dbl>   <dbl>   <dbl>
 1 Autaug… Alab…   43671   54571   55504    1.48    13.7    77.5     7.2    3.86
 2 Missis… Arka…   51979   46480   42159   -5.63    25.6    59.9    16.8    5.94
 3 Tollan… Conn…  136364  152691  151461   -0.29     6.5    76.4    24.3    4   
 4 Lamar … Geor…   15912   18317   18599    3.8     20.8    66.6    11.1    5.67
 5 Hancoc… Illi…   20121   19104   18020   -2.82    11.2    79.9     8.7    5.09
 6 Wayne … Indi…   71097   68917   66185   -2.36    18.2    68.6    17.9    3.76
 7 Logan … Kans…    3046    2756    2821    1.8      8.9    76.3     6.9    2.14
 8 Simpso… Kent…   16405   17327   18108    2.37    17.4    70.2    11.8    4.55
 9 Gladwi… Mich…   26023   25692   25234   -1.24    20.2    85.4     3.8    6.67
10 Clay C… Miss…   21979   20634   19640   -3.47    26.6    71.5     8.7    6.75
# … with 11 more rows, 5 more variables: metro <fct>, median_edu <fct>,
#   per_capita_income <dbl>, median_hh_income <int>, smoking_ban <fct>, and
#   abbreviated variable names ¹​pop_change, ²​homeownership, ³​multi_unit,
#   ⁴​unemployment_rate
# ℹ Use `print(n = ...)` to see more rows, and `colnames()` to see all variable names

Convenience Sampling

county %>% 
  filter(state == 'New York')

# A tibble: 62 × 15
   name    state pop2000 pop2010 pop2017 pop_c…¹ poverty homeo…² multi…³ unemp…⁴
   <fct>   <fct>   <dbl>   <dbl>   <int>   <dbl>   <dbl>   <dbl>   <dbl>   <dbl>
 1 Albany… New …  294565  304204  309612    0.71    12.4    58.9    43.7    4.26
 2 Allega… New …   49927   48946   46894   -2.17    16.5    75.6    11.7    6.7 
 3 Bronx … New … 1332650 1385108 1471160    2.67    29.7    20.7    89.1    6.2 
 4 Broome… New …  200536  200600  193639   -2.31    17.1    66.6    31.8    5.61
 5 Cattar… New …   83955   80317   77348   -2.13    16.9    73.4    16.8    6.25
 6 Cayuga… New …   81963   80026   77603   -1.91    11.6    71.8    22.2    5.1 
 7 Chauta… New …  139750  134905  129046   -2.9     18.5    69.8    25.2    6.08
 8 Chemun… New …   91070   88830   85557   -3.19    15.8    68.1    25.8    5.59
 9 Chenan… New …   51401   50477   47863   -3.29    14.5    77.2    14.5    5.4 
10 Clinto… New …   79894   82128   80980   -0.74    15.7    70.3    20.9    5.37
# … with 52 more rows, 5 more variables: metro <fct>, median_edu <fct>,
#   per_capita_income <dbl>, median_hh_income <int>, smoking_ban <fct>, and
#   abbreviated variable names ¹​pop_change, ²​homeownership, ³​multi_unit,
#   ⁴​unemployment_rate
# ℹ Use `print(n = ...)` to see more rows, and `colnames()` to see all variable names
