MATH 254 - Winning in Tennis: Are There Hidden Factors?
…
Mutate: adding a row to indicates if there was an upset (1) or not (0)

Code

```{r}
new_data_2 <-
  new_data %>%
  mutate(upset = case_when(winner_rank > loser_rank ~ 1, 
                           winner_rank < loser_rank ~ 0))
new_data_2 %>%
  select(winner_rank, loser_rank, upset)
```

# A tibble: 3,364 × 3
   winner_rank loser_rank upset
         <dbl>      <dbl> <dbl>
 1         113         50     1
 2         352        139     1
 3         103        133     0
 4         107         95     1
 5          74        111     0
 6          92        102     0
 7         120        112     1
 8          79         91     0
 9          89         97     0
10         125        117     1
# … with 3,354 more rows
…
