Chernobyl data - Statistical Inference using infer package
…
feather <- rep('white_feather', 43)
no_feather <- rep('no_white_feather', 223)
set.seed(2022)
chernobyl <- sample(c(feather, no_feather))
chernobyl[1:10]

 [1] "no_white_feather" "no_white_feather" "no_white_feather" "no_white_feather"
 [5] "no_white_feather" "no_white_feather" "no_white_feather" "no_white_feather"
 [9] "no_white_feather" "white_feather"   

chernobyl_df <- tibble(chernobyl)
chernobyl_df

# A tibble: 266 × 1
   chernobyl       
   <chr>           
 1 no_white_feather
 2 no_white_feather
 3 no_white_feather
 4 no_white_feather
 5 no_white_feather
 6 no_white_feather
 7 no_white_feather
 8 no_white_feather
 9 no_white_feather
10 white_feather   
# … with 256 more rows
# ℹ Use `print(n = ...)` to see more rows
…
