County data - Statistical Inference using infer package
…
Change the data format to tibble (advanced data frame) and view portion of it.

county <- as_tibble(county)
county

# A tibble: 3,142 × 15
   name    state pop2000 pop2010 pop2017 pop_c…¹ poverty homeo…² multi…³ unemp…⁴
   <chr>   <chr>   <dbl>   <dbl>   <dbl>   <dbl>   <dbl>   <dbl>   <dbl>   <dbl>
 1 Autaug… Alab…   43671   54571   55504    1.48    13.7    77.5     7.2    3.86
 2 Baldwi… Alab…  140415  182265  212628    9.19    11.8    76.7    22.6    3.99
 3 Barbou… Alab…   29038   27457   25270   -6.22    27.2    68      11.1    5.9 
 4 Bibb C… Alab…   20826   22915   22668    0.73    15.2    82.9     6.6    4.39
 5 Blount… Alab…   51024   57322   58013    0.68    15.6    82       3.7    4.02
 6 Bulloc… Alab…   11714   10914   10309   -2.28    28.5    76.9     9.9    4.93
 7 Butler… Alab…   21399   20947   19825   -2.69    24.4    69      13.7    5.49
 8 Calhou… Alab…  112249  118572  114728   -1.51    18.6    70.7    14.3    4.93
 9 Chambe… Alab…   36583   34215   33713   -1.2     18.8    71.4     8.7    4.08
10 Cherok… Alab…   23988   25989   25857   -0.6     16.1    77.5     4.3    4.05
# … with 3,132 more rows, 5 more variables: metro <chr>, median_edu <chr>,
#   per_capita_income <dbl>, median_hh_income <dbl>, smoking_ban <chr>, and
#   abbreviated variable names ¹​pop_change, ²​homeownership, ³​multi_unit,
#   ⁴​unemployment_rate
# ℹ Use `print(n = ...)` to see more rows, and `colnames()` to see all variable names

Sample from the population!

set.seed(123)
county_small <- 
  county %>% 
  slice_sample(n = 100)
county_small

# A tibble: 100 × 15
   name    state pop2000 pop2010 pop2017 pop_c…¹ poverty homeo…² multi…³ unemp…⁴
   <chr>   <chr>   <dbl>   <dbl>   <dbl>   <dbl>   <dbl>   <dbl>   <dbl>   <dbl>
 1 Hardem… Tenn…   28105   27253   25447   -3.18    21.2    73.2     6.3    5.16
 2 Sumner… Tenn…  130449  160645  183545    8.85     9.7    74.7    15.1    2.96
 3 Lake C… Oreg…    7422    7895    7863    1       20      68.4     4.9    5.7 
 4 Towns … Geor…    9319   10471   11506    6.68    14.7    86.5     2.3    6.54
 5 El Dor… Cali…  156299  181058  188987    4.06     9.8    76.5    12.1    4.36
 6 Steven… Wash…   40066   43531   44730    3.4     15.6    80.6     5.9    7.26
 7 Dutche… New …  280150  297488  295568   -0.46     9.1    70.6    28.6    4.33
 8 Lafour… Loui…   89974   96318   98426    1.21    16      77       9.1    5.24
 9 Dickin… Mich…   27472   26168   25415   -2.27    15.2    80.4     9.9    4.85
10 Isabel… Mich…   63351   70311   71063    1.38    27.3    59.4    30.4    4.58
# … with 90 more rows, 5 more variables: metro <chr>, median_edu <chr>,
#   per_capita_income <dbl>, median_hh_income <dbl>, smoking_ban <chr>, and
#   abbreviated variable names ¹​pop_change, ²​homeownership, ³​multi_unit,
#   ⁴​unemployment_rate
# ℹ Use `print(n = ...)` to see more rows, and `colnames()` to see all variable names
…
