A/B testing - Two Sample Proportions - Permutation Test
…
Simulate the data

library(tidyverse)
library(infer)

a <- c(rep('sale', 201), rep('no-sale', 435 - 201))
b <- c(rep('sale', 183), rep('no-sale', 352 - 183))
df1 <- tibble(sale_indicator = a, group = rep('A'))
df2 <- tibble(sale_indicator = b, group = rep('B'))
ecommerce <- 
  df1 %>% 
  bind_rows(df2)
ecommerce

# A tibble: 787 × 2
   sale_indicator group
   <chr>          <chr>
 1 sale           A    
 2 sale           A    
 3 sale           A    
 4 sale           A    
 5 sale           A    
 6 sale           A    
 7 sale           A    
 8 sale           A    
 9 sale           A    
10 sale           A    
# … with 777 more rows
…
set.seed(2022)
null_dist <- 
  ecommerce %>% 
  specify(sale_indicator ~ group, success = 'sale') %>% 
  hypothesize(null = 'independence') %>% 
  generate(reps = 1000, type = 'permute') %>% 
  calculate(stat = 'diff in props')

null_dist

Response: sale_indicator (factor)
Explanatory: group (factor)
Null Hypothesis: independence
# A tibble: 1,000 × 2
   replicate     stat
       <int>    <dbl>
 1         1 -0.0373 
 2         2  0.0604 
 3         3 -0.0527 
 4         4 -0.0321 
 5         5 -0.0218 
 6         6  0.0347 
 7         7  0.00900
 8         8  0.0141 
 9         9  0.00386
10        10 -0.0630 
# … with 990 more rows
# ℹ Use `print(n = ...)` to see more rows
…
