Examining Feature Rank and Dependency in the Q-CHAT-10 ASD Questionnaire
…
# finding the best manual manually
rf_resample$.metrics

[[1]]
# A tibble: 25 × 6
    mtry min_n .metric .estimator .estimate .config              
   <int> <int> <chr>   <chr>          <dbl> <chr>                
 1     7    12 roc_auc binary         0.988 Preprocessor1_Model01
 2     5     4 roc_auc binary         0.992 Preprocessor1_Model02
 3     9    39 roc_auc binary         0.985 Preprocessor1_Model03
 4     2    35 roc_auc binary         0.992 Preprocessor1_Model04
 5     3    38 roc_auc binary         0.988 Preprocessor1_Model05
 6     8    31 roc_auc binary         0.986 Preprocessor1_Model06
 7     1    26 roc_auc binary         0.999 Preprocessor1_Model07
 8     9     9 roc_auc binary         0.987 Preprocessor1_Model08
 9     5    23 roc_auc binary         0.986 Preprocessor1_Model09
10     9    25 roc_auc binary         0.984 Preprocessor1_Model10
# … with 15 more rows
…
# A tibble: 1 × 3
   mtry min_n .config              
  <int> <int> <chr>                
1     1    26 Preprocessor1_Model07

# at some point the Yes's and No's flipped
rf_resample %>% 
  collect_predictions()

# A tibble: 4,225 × 8
   id         .pred_No .pred_Yes  .row  mtry min_n Class.ASD.Traits .config     
   <chr>         <dbl>     <dbl> <int> <int> <int> <fct>            <chr>       
 1 validation    0.998   0.00189     2     7    12 No               Preprocesso…
 2 validation    1       0           8     7    12 No               Preprocesso…
 3 validation    1       0          11     7    12 No               Preprocesso…
 4 validation    1       0          12     7    12 No               Preprocesso…
 5 validation    1       0          14     7    12 No               Preprocesso…
 6 validation    1       0          16     7    12 No               Preprocesso…
 7 validation    1       0          17     7    12 No               Preprocesso…
 8 validation    1       0          20     7    12 No               Preprocesso…
 9 validation    1       0          25     7    12 No               Preprocesso…
10 validation    0.998   0.00151    32     7    12 No               Preprocesso…
# … with 4,215 more rows
…
