Movie Profit Prediction Model
…
glance(model_1)

# A tibble: 1 × 12
  r.squared adj.r…¹  sigma stati…²   p.value    df  logLik    AIC    BIC devia…³
      <dbl>   <dbl>  <dbl>   <dbl>     <dbl> <dbl>   <dbl>  <dbl>  <dbl>   <dbl>
1     0.277   0.276 3.22e7    245. 1.32e-134     3 -35917. 71844. 71872. 1.99e18
# … with 2 more variables: df.residual <int>, nobs <int>, and abbreviated
#   variable names ¹​adj.r.squared, ²​statistic, ³​deviance

model_1 %>% 
  predict(new_data = movie_data)

# A tibble: 1,920 × 1
        .pred
        <dbl>
 1  91632317.
 2 101189775.
 3 114739888.
 4  95973049.
 5 108388825.
 6  75130273.
 7  83907909.
 8  94472848.
 9  93332847.
10  99756214.
# … with 1,910 more rows
…
