Linear Regression - Permutation Test
…
2 data selection

county_new <- 
  county %>% 
  select(homeownership, unemployment_rate) %>% 
  drop_na()

county_new

# A tibble: 3,139 × 2
   homeownership unemployment_rate
           <dbl>             <dbl>
 1          77.5              3.86
 2          76.7              3.99
 3          68                5.9 
 4          82.9              4.39
 5          82                4.02
 6          76.9              4.93
 7          69                5.49
 8          70.7              4.93
 9          71.4              4.08
10          77.5              4.05
# … with 3,129 more rows
# ℹ Use `print(n = ...)` to see more rows
…
