When a rule of thumb fails: CLT and Departure Delays dataset
…
Now, we will be sampling from this population 1000 samples with various sizes: \(20, 30, 50, 100, 300, 600, 1000, 1500, 2000\). For each size, we will construct the sampling distribution of the sample mean of the sampled delay minutes, and look at the distribution. As sample size increase, the sampling distribution will tend to look more Gaussian, but we will also pay attention to the rule of thumb, \(n\geq 30\).

Initialize the number of simulated samples and sample sizes

sample_sizes = c(20, 30, 50, 100, 300, 600, 1000, 1500, 2000)
replicate_size = 1000  # number of samples
df <- tibble(replicate = 1:replicate_size)
df

# A tibble: 1,000 × 1
   replicate
       <int>
 1         1
 2         2
 3         3
 4         4
 5         5
 6         6
 7         7
 8         8
 9         9
10        10
# … with 990 more rows
# ℹ Use `print(n = ...)` to see more rows
…
  df <- 
    df %>% 
    inner_join(new_df, by = 'replicate')
}
colnames(df) <- c('replicate', sample_sizes)
df

# A tibble: 1,000 × 10
   replicate  `20`  `30`  `50` `100` `300` `600` `1000` `1500` `2000`
       <int> <dbl> <dbl> <dbl> <dbl> <dbl> <dbl>  <dbl>  <dbl>  <dbl>
 1         1  10.9 12.5   0.92  1.45  9.05 14.0    8.74   6.64   7.15
 2         2   6   11.6  24.7   7.99  9.29  4.98   8.80   5.21   6.69
 3         3  -0.4 -1.2  -1.24  8.39  2.55  3.13   6.48   6.97   6.79
 4         4  -3.9 -4.77 13.3   6.06  9.19  4.51   6.18   7.06   6.18
 5         5  -6.1  4.7   3.22  1.39  7.65  6.35   7.54   7.70   6.91
 6         6  -2    2.63  3.36  1.79  5.75  8.98  11.2    7.82   7.45
 7         7  41.8  4.27  3.84 12.9  12.7   3.42   5.35   7.58   6.82
 8         8  -5.3  2.93 -0.3   4.57  2.43  6.89   6.96   5.10   7.19
 9         9  28.0 35.3   9.9   1.17 11.9   8.10   6.28   5.61   7.05
10        10  59    4.13 -2.84 11.9   4.92  6.60   5.18   7.20   7.26
# … with 990 more rows
# ℹ Use `print(n = ...)` to see more rows
…
df %>% 
  pivot_longer(cols = !replicate,
               names_to = 'sample_sizes', 
               values_to = 'X_bar') %>% 
  mutate(sample_sizes = as.integer(sample_sizes))

# A tibble: 9,000 × 3
   replicate sample_sizes X_bar
       <int>        <int> <dbl>
 1         1           20 10.9 
 2         1           30 12.5 
 3         1           50  0.92
 4         1          100  1.45
 5         1          300  9.05
 6         1          600 14.0 
 7         1         1000  8.74
 8         1         1500  6.64
 9         1         2000  7.15
10         2           20  6   
# … with 8,990 more rows
# ℹ Use `print(n = ...)` to see more rows
…
