Bootstrap Distribution - delays data
…
    Published

      September 19, 2022

1 Libraries and data

Collapse/show the code below

library(tidyverse)
library(infer)

delays <- read_csv('https://raw.githubusercontent.com/turalsadigov/MATH_254/main/data/delays.csv')
delays

# A tibble: 3,161 × 6
   Carrier Date      `Flight #` `Tail #` Destination `Departure Delay Minutes`
   <chr>   <chr>          <dbl> <chr>    <chr>                           <dbl>
 1 UA      1/8/2019         714 N810UA   ORD                                32
 2 UA      1/9/2019         714 N4888U   ORD                                -2
 3 UA      1/10/2019        714 N816UA   ORD                                 0
 4 UA      1/11/2019        714 N4888U   ORD                                28
 5 UA      1/12/2019        714 N897UA   ORD                                -1
 6 UA      1/13/2019        714 N832UA   ORD                                 4
 7 UA      1/14/2019        714 N837UA   ORD                                 0
 8 UA      1/15/2019        714 N820UA   ORD                                -3
 9 UA      1/16/2019        714 N852UA   ORD                                -4
10 UA      1/17/2019        714 N807UA   ORD                               -11
# … with 3,151 more rows
# ℹ Use `print(n = ...)` to see more rows
…
