Logistic Regression - County data
…
## demo model

extract_fit_engine(demo_model) %>% 
  tidy()
collect_metrics(demo_model) 
```

# A tibble: 2 × 4
  .metric  .estimator .estimate .config             
  <chr>    <chr>          <dbl> <chr>               
1 accuracy binary         0.806 Preprocessor1_Model1
2 roc_auc  binary         0.859 Preprocessor1_Model1
# A tibble: 628 × 7
   id               .pred_no .pred_yes  .row .pred_class metro .config          
   <chr>               <dbl>     <dbl> <int> <fct>       <fct> <chr>            
 1 train/test split   0.135     0.865      2 yes         yes   Preprocessor1_Mo…
 2 train/test split   0.521     0.479     22 no          no    Preprocessor1_Mo…
 3 train/test split   0.794     0.206     30 no          no    Preprocessor1_Mo…
 4 train/test split   0.930     0.0697    33 no          yes   Preprocessor1_Mo…
 5 train/test split   0.682     0.318     36 no          no    Preprocessor1_Mo…
 6 train/test split   0.0478    0.952     37 yes         yes   Preprocessor1_Mo…
 7 train/test split   0.420     0.580     39 yes         yes   Preprocessor1_Mo…
 8 train/test split   0.288     0.712     42 yes         yes   Preprocessor1_Mo…
 9 train/test split   0.968     0.0324    43 no          yes   Preprocessor1_Mo…
10 train/test split   0.843     0.157     47 no          no    Preprocessor1_Mo…
# … with 618 more rows
…
