Bootstrap distribution of sample correlation - County data
…
Change the data format to tibble (advanced data frame) and view portion of it.

county <- 
  county %>% 
  drop_na() %>% 
  as_tibble(county)
county

# A tibble: 2,560 × 15
   name    state pop2000 pop2010 pop2017 pop_c…¹ poverty homeo…² multi…³ unemp…⁴
   <chr>   <chr>   <dbl>   <dbl>   <dbl>   <dbl>   <dbl>   <dbl>   <dbl>   <dbl>
 1 Autaug… Alab…   43671   54571   55504    1.48    13.7    77.5     7.2    3.86
 2 Baldwi… Alab…  140415  182265  212628    9.19    11.8    76.7    22.6    3.99
 3 Barbou… Alab…   29038   27457   25270   -6.22    27.2    68      11.1    5.9 
 4 Bibb C… Alab…   20826   22915   22668    0.73    15.2    82.9     6.6    4.39
 5 Blount… Alab…   51024   57322   58013    0.68    15.6    82       3.7    4.02
 6 Bulloc… Alab…   11714   10914   10309   -2.28    28.5    76.9     9.9    4.93
 7 Chambe… Alab…   36583   34215   33713   -1.2     18.8    71.4     8.7    4.08
 8 Cherok… Alab…   23988   25989   25857   -0.6     16.1    77.5     4.3    4.05
 9 Chilto… Alab…   39593   43643   44067    0.97    19.4    75.1     4.4    4.05
10 Chocta… Alab…   15922   13859   12945   -3.37    22.3    85.6     3.9    6.39
# … with 2,550 more rows, 5 more variables: metro <chr>, median_edu <chr>,
#   per_capita_income <dbl>, median_hh_income <dbl>, smoking_ban <chr>, and
#   abbreviated variable names ¹​pop_change, ²​homeownership, ³​multi_unit,
#   ⁴​unemployment_rate
# ℹ Use `print(n = ...)` to see more rows, and `colnames()` to see all variable names
…
