MATH 254 Summary and more
…
Trick 1: count

library(stats2data)
library(tidyverse)
county %>% 
  count(state)

Trick 1: count

library(stats2data)
library(tidyverse)
county %>% 
  count(state)

# A tibble: 51 × 2
   state                    n
   <chr>                <int>
 1 Alabama                 67
 2 Alaska                  29
 3 Arizona                 15
 4 Arkansas                75
 5 California              58
 6 Colorado                64
 7 Connecticut              8
 8 Delaware                 3
 9 District of Columbia     1
10 Florida                 67
# … with 41 more rows

count + sort

county %>% 
  count(state, sort = TRUE) 

count + sort

county %>% 
  count(state, sort = TRUE) 

# A tibble: 51 × 2
   state              n
   <chr>          <int>
 1 Texas            254
 2 Georgia          159
 3 Virginia         133
 4 Kentucky         120
 5 Missouri         115
 6 Kansas           105
 7 Illinois         102
 8 North Carolina   100
 9 Iowa              99
10 Tennessee         95
# … with 41 more rows
…
county %>% 
  count(state, sort = TRUE, name = 'num_of_counties')

count + sort + name

county %>% 
  count(state, sort = TRUE, name = 'num_of_counties')

count + sort + name

county %>% 
  count(state, sort = TRUE, name = 'num_of_counties')

# A tibble: 51 × 2
   state          num_of_counties
   <chr>                    <int>
 1 Texas                      254
 2 Georgia                    159
 3 Virginia                   133
 4 Kentucky                   120
 5 Missouri                   115
 6 Kansas                     105
 7 Illinois                   102
 8 North Carolina             100
 9 Iowa                        99
10 Tennessee                   95
# … with 41 more rows
…
county %>% 
  count(state, sort = TRUE, name = 'total_pop2017', wt = pop2017)

+ weight

county %>% 
  count(state, sort = TRUE, name = 'total_pop2017', wt = pop2017)

+ weight

county %>% 
  count(state, sort = TRUE, name = 'total_pop2017', wt = pop2017)

# A tibble: 51 × 2
   state          total_pop2017
   <chr>                  <dbl>
 1 California          39536653
 2 Texas               28304596
 3 Florida             20984400
 4 New York            19849399
 5 Pennsylvania        12805537
 6 Illinois            12802023
 7 Ohio                11658609
 8 Georgia             10429379
 9 North Carolina      10273419
10 Michigan             9962311
# … with 41 more rows

weight + transformation

county %>% 
  count(state, sort = TRUE, name = 'total_pop2017', wt = log(pop2017))

# A tibble: 51 × 2
   state          total_pop2017
   <chr>                  <dbl>
 1 Texas                  2516.
 2 Georgia                1622.
 3 Virginia               1370.
 4 Kentucky               1196.
 5 Missouri               1152.
 6 North Carolina         1091.
 7 Illinois               1058.
 8 Tennessee               995.
 9 Ohio                    983.
10 Indiana                 975.
# … with 41 more rows
…
county %>% 
  select(-smoking_ban) %>% 
  drop_na() %>% 
  group_by(state) %>% 
  summarise(avg = mean(poverty))

Trick 2: summarise

county %>% 
  select(-smoking_ban) %>% 
  drop_na() %>% 
  group_by(state) %>% 
  summarise(avg = mean(poverty))

# A tibble: 51 × 2
   state                  avg
   <chr>                <dbl>
 1 Alabama               20.9
 2 Alaska                13.0
 3 Arizona               20.2
 4 Arkansas              20.4
 5 California            15.7
 6 Colorado              13.4
 7 Connecticut            9.2
 8 Delaware              12.3
 9 District of Columbia  17.4
10 Florida               17.2
# … with 41 more rows
…
county %>% 
  select(state, poverty, homeownership) %>% 
  drop_na() %>% 
  group_by(state) %>% 
  summarise(lms = list(lm(poverty~homeownership)))

summarize to list columns

county %>% 
  select(state, poverty, homeownership) %>% 
  drop_na() %>% 
  group_by(state) %>% 
  summarise(lms = list(lm(poverty~homeownership)))

# A tibble: 51 × 2
   state                lms   
   <chr>                <list>
 1 Alabama              <lm>  
 2 Alaska               <lm>  
 3 Arizona              <lm>  
 4 Arkansas             <lm>  
 5 California           <lm>  
 6 Colorado             <lm>  
 7 Connecticut          <lm>  
 8 Delaware             <lm>  
 9 District of Columbia <lm>  
10 Florida              <lm>  
# … with 41 more rows
…
map to new list-column

county %>% 
  select(state, poverty, homeownership) %>% 
  drop_na() %>% 
  group_by(state) %>% 
  summarise(lms = list(lm(poverty~homeownership))) %>% 
  mutate(tidied  = map(lms, broom::tidy)) 

# A tibble: 51 × 3
   state                lms    tidied          
   <chr>                <list> <list>          
 1 Alabama              <lm>   <tibble [2 × 5]>
 2 Alaska               <lm>   <tibble [2 × 5]>
 3 Arizona              <lm>   <tibble [2 × 5]>
 4 Arkansas             <lm>   <tibble [2 × 5]>
 5 California           <lm>   <tibble [2 × 5]>
 6 Colorado             <lm>   <tibble [2 × 5]>
 7 Connecticut          <lm>   <tibble [2 × 5]>
 8 Delaware             <lm>   <tibble [2 × 5]>
 9 District of Columbia <lm>   <tibble [2 × 5]>
10 Florida              <lm>   <tibble [2 × 5]>
# … with 41 more rows
…
using list-columns

county %>% 
  select(state, poverty, homeownership) %>% 
  group_by(state) %>% 
  summarise(lms = list(lm(poverty~homeownership))) %>% 
  mutate(tidied  = map(lms, broom::tidy)) %>% 
  unnest(tidied)

# A tibble: 102 × 7
   state      lms    term          estimate std.error statistic  p.value
   <chr>      <list> <chr>            <dbl>     <dbl>     <dbl>    <dbl>
 1 Alabama    <lm>   (Intercept)    44.4       9.33       4.76  1.12e- 5
 2 Alabama    <lm>   homeownership  -0.320     0.127     -2.52  1.41e- 2
 3 Alaska     <lm>   (Intercept)    13.6       8.31       1.64  1.13e- 1
 4 Alaska     <lm>   homeownership  -0.0156    0.130     -0.120 9.05e- 1
 5 Arizona    <lm>   (Intercept)    -4.41     12.9       -0.342 7.38e- 1
 6 Arizona    <lm>   homeownership   0.353     0.184      1.92  7.75e- 2
 7 Arkansas   <lm>   (Intercept)    40.0       5.32       7.52  1.11e-10
 8 Arkansas   <lm>   homeownership  -0.275     0.0744    -3.70  4.13e- 4
 9 California <lm>   (Intercept)    24.4       5.51       4.42  4.56e- 5
10 California <lm>   homeownership  -0.136     0.0865    -1.58  1.20e- 1
# … with 92 more rows
…
